﻿Columna,Significado,,,,,
TripType,Tipo de ticket,,,Ejemplo,,
VisitNumber,id de ticket,,,Upc,22006000000,"Nuggets de pollo, presentación 500 gr"
Weekday,día de la semana,,,FinelineNumber,6009,Pollo congelado
Upc,id de artículo,,,DepartmentDescription,MEAT - FRESH & FROZEN,
ScanCount,# de piezas compradas,,,,,
DepartmentDescription,Departamento,,,Ejemplo,,
FinelineNumber,Subcategoría del departamento,,,30,Ticket de moda,
,,,,26,Despensa básica,
